{
    "KPlugin": {
        "Authors": [
            {
                "Email": "aleixpol@kde.org",
                "Name": "Aleix Pol",
                "Name[az]": "Aleix Pol",
                "Name[ca@valencia]": "Aleix Pol",
                "Name[ca]": "Aleix Pol",
                "Name[cs]": "Aleix Pol",
                "Name[de]": "Aleix Pol",
                "Name[en_GB]": "Aleix Pol",
                "Name[es]": "Aleix Pol",
                "Name[eu]": "Aleix Pol",
                "Name[fi]": "Aleix Pol",
                "Name[fr]": "Aleix Pol",
                "Name[ia]": "Aleix Pol",
                "Name[is]": "Aleix Pol",
                "Name[it]": "Aleix Pol",
                "Name[ka]": "Aleix Pol",
                "Name[ko]": "Aleix Pol",
                "Name[nl]": "Aleix Pol",
                "Name[nn]": "Aleix Pol",
                "Name[pa]": "ਐਲਿਕਸ ਪੋਲ",
                "Name[pl]": "Aleix Pol",
                "Name[pt]": "Aleix Pol",
                "Name[pt_BR]": "Aleix Pol",
                "Name[ru]": "Aleix Pol",
                "Name[sl]": "Aleix Pol",
                "Name[sv]": "Aleix Pol",
                "Name[tr]": "Aleix Pol",
                "Name[uk]": "Aleix Pol",
                "Name[x-test]": "xxAleix Polxx",
                "Name[zh_CN]": "Aleix Pol"
            }
        ],
        "Description": "Night color quick setting for Plasma Mobile",
        "Description[ca@valencia]": "Configuració ràpida del color de nit per a Plasma Mobile",
        "Description[ca]": "Configuració ràpida del color de nit per al Plasma Mobile",
        "Description[en_GB]": "Night colour quick setting for Plasma Mobile",
        "Description[es]": "Ajuste rápido para el color nocturno para Plasma Mobile",
        "Description[eu]": "Gaueko kolorearen ezarpen azkarra Plasma Mugikorrerako",
        "Description[fi]": "Yövärin pika-asetus Plasma Mobileen",
        "Description[fr]": "Configuration rapide de la couleur de nuit pour Plasma Mobile",
        "Description[ia]": "Preferentia rapide de Color de Nocte per Plasma Mobile",
        "Description[it]": "Impostazione rapida del colore notturno per Plasma Mobile",
        "Description[ka]": "ღამის ფერების სწრაფი მორგების პარამეტრი Plasma Mobile-სთვის",
        "Description[nl]": "Snelle instelling voor nachtkleur voor Plasma Mobile",
        "Description[nn]": "Snøgginnstilling for kveldfargar for Plasma Mobile",
        "Description[pl]": "Szybkie włączanie barw nocnych w Przenośnej Plazmie",
        "Description[pt]": "Configuração rápida da cor nocturna do Plasma Mobile",
        "Description[ru]": "Быстрая настройка ночной цветовой схемы для Plasma Mobile",
        "Description[sl]": "Hitre nastavitve nočnih barv za Plasma Mobile",
        "Description[tr]": "Plasma Mobile gece rengi tez ayarı",
        "Description[uk]": "Швидке налаштовування нічних кольорів для Мобільної Плазми",
        "Description[x-test]": "xxNight color quick setting for Plasma Mobilexx",
        "Description[zh_CN]": "Plasma Mobile 的夜间颜色快捷设置",
        "Icon": "redshift-status-on",
        "Id": "org.kde.plasma.quicksetting.nightcolor",
        "License": "GPL",
        "Name": "Night Color",
        "Name[az]": "Gecə rəngi",
        "Name[ca@valencia]": "Color de nit",
        "Name[ca]": "Color de nit",
        "Name[cs]": "Noční barva",
        "Name[da]": "Natfarver",
        "Name[de]": "Nachtfarben",
        "Name[en_GB]": "Night Colour",
        "Name[es]": "Color nocturno",
        "Name[eu]": "Gaueko kolorea",
        "Name[fi]": "Yöväri",
        "Name[fr]": "Couleur de nuit",
        "Name[hi]": "रात्रि के रंग",
        "Name[hu]": "Éjszakai színek",
        "Name[ia]": "Color de Nocte",
        "Name[is]": "Næturlitir",
        "Name[it]": "Colore notturno",
        "Name[ka]": "ღამის ფერი",
        "Name[ko]": "야간 색상",
        "Name[nl]": "Nachtkleur",
        "Name[nn]": "Kvelds­fargar",
        "Name[pa]": "ਰਾਤ ਦੇ ਰੰਗ",
        "Name[pl]": "Barwy nocne",
        "Name[pt]": "Cor Nocturna",
        "Name[pt_BR]": "Cor noturna",
        "Name[ro]": "Culoare nocturnă",
        "Name[ru]": "Ночная цветовая схема",
        "Name[sk]": "Nočná farba",
        "Name[sl]": "Nočna barva",
        "Name[sv]": "Nattfärg",
        "Name[tr]": "Gece Rengi",
        "Name[uk]": "Нічні кольори",
        "Name[x-test]": "xxNight Colorxx",
        "Name[zh_CN]": "夜间颜色",
        "ServiceTypes": [
            "KPackage/GenericQML"
        ],
        "Version": "0.1",
        "Website": "https://kde.org"
    }
}
